1 Maps with basemaps | Geospatial Visualization
…
Robin Wilson compiled Snow’s data and made it available on his website. We’ve formatted his data and converted the two files to GeoJSON to make them easy to upload to Mapbox. These two GeoJSON files are available in the data folder. Let’s read them in to see what they look like.

The original data can be downloaded here.

deaths <- read_sf("data/cholera/cholera_deaths.geojson")
pumps <- read_sf("data/cholera/cholera_pumps.geojson")

deaths
#> Simple feature collection with 250 features and 1 field
#> Geometry type: POINT
#> Dimension:     XY
#> Bounding box:  xmin: -0.14 ymin: 51.5 xmax: -0.133 ymax: 51.5
#> Geodetic CRS:  WGS 84
#> # A tibble: 250 × 2
#>   deaths      geometry
#>    <int>   <POINT [°]>
#> 1     15 (-0.137 51.5)
#> 2      8 (-0.139 51.5)
#> 3      8 (-0.135 51.5)
#> 4      8 (-0.134 51.5)
#> 5      7 (-0.135 51.5)
#> 6      5 (-0.136 51.5)
#> # … with 244 more rows

pumps
#> Simple feature collection with 8 features and 0 fields
#> Geometry type: POINT
#> Dimension:     XY
#> Bounding box:  xmin: -0.14 ymin: 51.5 xmax: -0.132 ymax: 51.5
#> Geodetic CRS:  WGS 84
#> # A tibble: 8 × 1
#>        geometry
#>     <POINT [°]>
#> 1 (-0.137 51.5)
#> 2  (-0.14 51.5)
#> 3  (-0.14 51.5)
#> 4 (-0.132 51.5)
#> 5 (-0.134 51.5)
#> 6 (-0.136 51.5)
#> # … with 2 more rows
…
